{
	"info": {
		"_postman_id": "5ab0b5ca-64ee-41bd-aa9d-53542d18e3ce",
		"name": "ApiCliente",
		"schema": "https://schema.getpostman.com/json/collection/v2.1.0/collection.json"
	},
	"item": [
		{
			"name": "Post Cliente",
			"request": {
				"method": "POST",
				"header": [
					{
						"key": "Content-Type",
						"name": "Content-Type",
						"value": "application/json",
						"type": "text"
					}
				],
				"body": {
					"mode": "raw",
					"raw": "{\n\t\"nome\":\"Gustavo\",\n\t\"cpf\":\"05909561162\",\n\t\"dataNascimento\":\"30/08/1997\"\n}",
					"options": {
						"raw": {
							"language": "json"
						}
					}
				},
				"url": {
					"raw": "http://localhost:8080/clientes",
					"protocol": "http",
					"host": [
						"localhost"
					],
					"port": "8080",
					"path": [
						"clientes"
					]
				},
				"description": "Salva um cliente"
			},
			"response": []
		},
		{
			"name": "Get By Id",
			"request": {
				"method": "GET",
				"header": [],
				"url": {
					"raw": "http://localhost:8080/clientes/1",
					"protocol": "http",
					"host": [
						"localhost"
					],
					"port": "8080",
					"path": [
						"clientes",
						"1"
					]
				},
				"description": "Buscar um Cliente por seu ID"
			},
			"response": []
		},
		{
			"name": "Delete",
			"request": {
				"method": "GET",
				"header": [],
				"url": {
					"raw": "http://localhost:8080/clientes/1",
					"protocol": "http",
					"host": [
						"localhost"
					],
					"port": "8080",
					"path": [
						"clientes",
						"1"
					]
				},
				"description": "Buscar um Cliente por seu ID"
			},
			"response": []
		},
		{
			"name": "Get All Without Pagination",
			"request": {
				"method": "GET",
				"header": [],
				"url": {
					"raw": "http://localhost:8080/clientes",
					"protocol": "http",
					"host": [
						"localhost"
					],
					"port": "8080",
					"path": [
						"clientes"
					]
				},
				"description": "Pega todos os clientes sem usar paginação"
			},
			"response": []
		},
		{
			"name": "Get With Search And Pagination",
			"request": {
				"method": "GET",
				"header": [],
				"url": {
					"raw": "http://localhost:8080/clientes/page?nome=gustavo&cpf=059095611",
					"protocol": "http",
					"host": [
						"localhost"
					],
					"port": "8080",
					"path": [
						"clientes",
						"page"
					],
					"query": [
						{
							"key": "nome",
							"value": "gustavo"
						},
						{
							"key": "cpf",
							"value": "059095611"
						}
					]
				}
			},
			"response": []
		},
		{
			"name": "Put Cliente",
			"request": {
				"method": "PUT",
				"header": [
					{
						"key": "Content-Type",
						"name": "Content-Type",
						"value": "application/json",
						"type": "text"
					}
				],
				"body": {
					"mode": "raw",
					"raw": "{\n\t\"nome\":\"Gustavo Oliveira Valeiro\",\n\t\"cpf\":\"05909561162\",\n\t\"dataNascimento\":\"30/08/1997\"\n}",
					"options": {
						"raw": {
							"language": "json"
						}
					}
				},
				"url": {
					"raw": "http://localhost:8080/clientes/1",
					"protocol": "http",
					"host": [
						"localhost"
					],
					"port": "8080",
					"path": [
						"clientes",
						"1"
					]
				}
			},
			"response": []
		},
		{
			"name": "Patch Cliente",
			"request": {
				"method": "PATCH",
				"header": [
					{
						"key": "Content-Type",
						"name": "Content-Type",
						"type": "text",
						"value": "application/json"
					}
				],
				"body": {
					"mode": "raw",
					"raw": "{\n\t\"nome\":\"Gustavo Oliveira Ferreira Valeiro\"\n}",
					"options": {
						"raw": {
							"language": "json"
						}
					}
				},
				"url": {
					"raw": "http://localhost:8080/clientes/1",
					"protocol": "http",
					"host": [
						"localhost"
					],
					"port": "8080",
					"path": [
						"clientes",
						"1"
					]
				}
			},
			"response": []
		}
	],
	"variable": [
		{
			"id": "687c1eab-5585-4543-9d0c-9b4f08be760c",
			"value": "",
			"type": "string"
		}
	],
	"protocolProfileBehavior": {}
}